{
    "err_no": 0,
    "err_msg": "success",
    "data": [{
        "topic_id": "6824710203301167112",
        "topic": {
            "topic_id": "6824710203301167112",
            "title": "上班摸鱼",
            "description": "来分享下你上班看到的好东西吧~",
            "icon": "https://user-gold-cdn.xitu.io/2018/12/12/167a0256fa93abb0?w=1409\u0026h=1056\u0026f=png\u0026s=670164",
            "msg_count": 17057,
            "follower_count": 5212,
            "attender_count": 18413
        },
        "user_interact": {
            "id": 6824710203301167112,
            "omitempty": 11,
            "user_id": 2990261628835821,
            "is_digg": false,
            "is_follow": false,
            "is_collect": false
        }
    }, {
        "topic_id": "6819970850532360206",
        "topic": {
            "topic_id": "6819970850532360206",
            "title": "内推招聘",
            "description": "job 三部曲「内推招聘」\u0026「求职中」\u0026「报 offer」之一，与大厂面对面，零距离。\n发布格式：\n办公坐标 + JD + 公司环境配图\n（话题下非相关性沸点会做折叠处理，比如只发一句话加链接，另外，请不要重复发布或多岗位单独发布）",
            "icon": "https://user-gold-cdn.xitu.io/2018/3/28/1626bf5ab8351cce?w=400\u0026h=400\u0026f=png\u0026s=49828",
            "msg_count": 3585,
            "follower_count": 10592,
            "attender_count": 6812
        },
        "user_interact": {
            "id": 6819970850532360206,
            "omitempty": 11,
            "user_id": 2990261628835821,
            "is_digg": false,
            "is_follow": false,
            "is_collect": false
        }
    }, {
        "topic_id": "6824710202487472141",
        "topic": {
            "topic_id": "6824710202487472141",
            "title": "一图胜千言",
            "description": "A picture is worth a thousand words",
            "icon": "https://user-gold-cdn.xitu.io/2018/5/15/1635f8400e159843?w=300\u0026h=300\u0026f=png\u0026s=18181",
            "msg_count": 6290,
            "follower_count": 6842,
            "attender_count": 10006
        },
        "user_interact": {
            "id": 6824710202487472141,
            "omitempty": 11,
            "user_id": 2990261628835821,
            "is_digg": false,
            "is_follow": false,
            "is_collect": false
        }
    }, {
        "topic_id": "6824710202562969614",
        "topic": {
            "topic_id": "6824710202562969614",
            "title": "今天学到了",
            "description": "日拱一卒，功不唐捐。\n一起来分享下你今天听到的有意思的事情，或者学习的冷知识。",
            "icon": "https://user-gold-cdn.xitu.io/2018/5/27/163a0f36c521fec1?w=800\u0026h=600\u0026f=jpeg\u0026s=680346",
            "msg_count": 5421,
            "follower_count": 7201,
            "attender_count": 7036
        },
        "user_interact": {
            "id": 6824710202562969614,
            "omitempty": 11,
            "user_id": 2990261628835821,
            "is_digg": false,
            "is_follow": false,
            "is_collect": false
        }
    }, {
        "topic_id": "6824710202378436621",
        "topic": {
            "topic_id": "6824710202378436621",
            "title": "每天一道算法题",
            "description": "每天精选一道算法题，帮助你更好地精进。",
            "icon": "https://user-gold-cdn.xitu.io/2018/3/28/1626c1bc2798945c?w=580\u0026h=580\u0026f=png\u0026s=91013",
            "msg_count": 523,
            "follower_count": 9488,
            "attender_count": 658
        },
        "user_interact": {
            "id": 6824710202378436621,
            "omitempty": 11,
            "user_id": 2990261628835821,
            "is_digg": false,
            "is_follow": false,
            "is_collect": false
        }
    }, {
        "topic_id": "6824710202000932877",
        "topic": {
            "topic_id": "6824710202000932877",
            "title": "开发工具推荐",
            "description": "来推荐一些你常用的能帮你提高效率的开发工具，不限于 IDE，开发框架，构建工具",
            "icon": "https://user-gold-cdn.xitu.io/2018/3/28/1626c0ac4544df09?w=512\u0026h=512\u0026f=png\u0026s=245015",
            "msg_count": 1174,
            "follower_count": 8742,
            "attender_count": 2295
        },
        "user_interact": {
            "id": 6824710202000932877,
            "omitempty": 11,
            "user_id": 2990261628835821,
            "is_digg": false,
            "is_follow": false,
            "is_collect": false
        }
    }, {
        "topic_id": "6824710203112423437",
        "topic": {
            "topic_id": "6824710203112423437",
            "title": "树洞一下",
            "description": "来分享下你的开心和不开心，此话题下内容统一由官方机器人账号「树洞robot」代发，本话题只讲故事~",
            "icon": "https://user-gold-cdn.xitu.io/2018/11/22/1673a95cceee34db?w=800\u0026h=600\u0026f=jpeg\u0026s=101015",
            "msg_count": 8892,
            "follower_count": 2318,
            "attender_count": 8345
        },
        "user_interact": {
            "id": 6824710203112423437,
            "omitempty": 11,
            "user_id": 2990261628835821,
            "is_digg": false,
            "is_follow": false,
            "is_collect": false
        }
    }, {
        "topic_id": "6824710202416332807",
        "topic": {
            "topic_id": "6824710202416332807",
            "title": "掘金相亲",
            "description": "千里姻缘掘金牵，有情人终成眷属。\n必须的信息：\n- 个人信息：性别，坐标，工作；\n- 对另一半的期待：\n其他信息选填：年龄，身高体重，爱好，联系方式，照片\n【注意：话题下未按照格式或无关沸点会被移除话题】",
            "icon": "https://user-gold-cdn.xitu.io/2018/3/29/16270f8fac539dbc?w=580\u0026h=580\u0026f=png\u0026s=16195",
            "msg_count": 681,
            "follower_count": 7101,
            "attender_count": 10874
        },
        "user_interact": {
            "id": 6824710202416332807,
            "omitempty": 11,
            "user_id": 2990261628835821,
            "is_digg": false,
            "is_follow": false,
            "is_collect": false
        }
    }, {
        "topic_id": "6819970850507194382",
        "topic": {
            "topic_id": "6819970850507194382",
            "title": "我的开源项目",
            "description": "来沸点曝光你的优秀开源项目\n投稿格式：\n【开源项目名 - 开源项目介绍】\n开源项目地址：https://juejin.im\n介绍：是什么，能做什么，一些故事\n加上1到3张配图。",
            "icon": "https://user-gold-cdn.xitu.io/2018/3/28/1626bf013a8e56ef?w=540\u0026h=540\u0026f=jpeg\u0026s=33458",
            "msg_count": 1184,
            "follower_count": 6595,
            "attender_count": 1716
        },
        "user_interact": {
            "id": 6819970850507194382,
            "omitempty": 11,
            "user_id": 2990261628835821,
            "is_digg": false,
            "is_follow": false,
            "is_collect": false
        }
    }, {
        "topic_id": "6824710203196309518",
        "topic": {
            "topic_id": "6824710203196309518",
            "title": "优秀开源推荐",
            "description": "来推荐你觉得优秀的开源项目（项目介绍+项目地址），不限于开源框架、开发工具~",
            "icon": "https://user-gold-cdn.xitu.io/2018/12/7/16786baaed4306a7?w=225\u0026h=225\u0026f=png\u0026s=2048",
            "msg_count": 2317,
            "follower_count": 5509,
            "attender_count": 2721
        },
        "user_interact": {
            "id": 6824710203196309518,
            "omitempty": 11,
            "user_id": 2990261628835821,
            "is_digg": false,
            "is_follow": false,
            "is_collect": false
        }
    }, {
        "topic_id": "6824710202785267719",
        "topic": {
            "topic_id": "6824710202785267719",
            "title": "应用安利",
            "description": "分享好玩、高颜值、实用的 APP、插件、扩展、小程序、H5…记得附上他们的介绍和下载地址哟",
            "icon": "https://user-gold-cdn.xitu.io/2018/7/20/164b58a751ad19ad?w=800\u0026h=600\u0026f=png\u0026s=279329",
            "msg_count": 1360,
            "follower_count": 4357,
            "attender_count": 2557
        },
        "user_interact": {
            "id": 6824710202785267719,
            "omitempty": 11,
            "user_id": 2990261628835821,
            "is_digg": false,
            "is_follow": false,
            "is_collect": false
        }
    }, {
        "topic_id": "6824710202911096846",
        "topic": {
            "topic_id": "6824710202911096846",
            "title": "今日最佳",
            "description": "The best or nothing.",
            "icon": "https://user-gold-cdn.xitu.io/2018/8/20/1655718df67078c4?w=225\u0026h=225\u0026f=png\u0026s=9356",
            "msg_count": 2270,
            "follower_count": 3560,
            "attender_count": 6148
        },
        "user_interact": {
            "id": 6824710202911096846,
            "omitempty": 11,
            "user_id": 2990261628835821,
            "is_digg": false,
            "is_follow": false,
            "is_collect": false
        }
    }, {
        "topic_id": "6824710202248396813",
        "topic": {
            "topic_id": "6824710202248396813",
            "title": "读书笔记",
            "description": "读不在三更五鼓，功只怕一曝十寒。",
            "icon": "https://user-gold-cdn.xitu.io/2018/3/30/16275a6754433e44?w=697\u0026h=482\u0026f=jpeg\u0026s=69842",
            "msg_count": 599,
            "follower_count": 4554,
            "attender_count": 773
        },
        "user_interact": {
            "id": 6824710202248396813,
            "omitempty": 11,
            "user_id": 2990261628835821,
            "is_digg": false,
            "is_follow": false,
            "is_collect": false
        }
    }, {
        "topic_id": "6824710202655244301",
        "topic": {
            "topic_id": "6824710202655244301",
            "title": "提问回答",
            "description": "#提问回答#，所提的问题要同技术、程序员有关，参考方向：技术前景、最优解、编程问题…，涉及编程开发的问题其描述需尽可能详细。一块通过#提问回答#茁壮成长吧~",
            "icon": "https://user-gold-cdn.xitu.io/2018/7/6/1646da198025cc30?w=299\u0026h=305\u0026f=png\u0026s=17445",
            "msg_count": 2812,
            "follower_count": 2579,
            "attender_count": 9017
        },
        "user_interact": {
            "id": 6824710202655244301,
            "omitempty": 11,
            "user_id": 2990261628835821,
            "is_digg": false,
            "is_follow": false,
            "is_collect": false
        }
    }, {
        "topic_id": "6824710203464761352",
        "topic": {
            "topic_id": "6824710203464761352",
            "title": "New 资讯",
            "description": "来分享你刚看到过的商业科技 / 互联网 / 科技数码资讯吧~",
            "icon": "https://user-gold-cdn.xitu.io/2019/1/22/16873e5e371931d5?w=800\u0026h=600\u0026f=jpeg\u0026s=342378",
            "msg_count": 3683,
            "follower_count": 1703,
            "attender_count": 2292
        },
        "user_interact": {
            "id": 6824710203464761352,
            "omitempty": 11,
            "user_id": 2990261628835821,
            "is_digg": false,
            "is_follow": false,
            "is_collect": false
        }
    }, {
        "topic_id": "6824710202344865805",
        "topic": {
            "topic_id": "6824710202344865805",
            "title": "薅羊毛",
            "description": "走过路过不要错过，软件降价通知，App Store 限免，能薅的都在这里",
            "icon": "https://user-gold-cdn.xitu.io/2018/3/28/1626c197673a7817?w=580\u0026h=580\u0026f=png\u0026s=151325",
            "msg_count": 185,
            "follower_count": 3914,
            "attender_count": 1259
        },
        "user_interact": {
            "id": 6824710202344865805,
            "omitempty": 11,
            "user_id": 2990261628835821,
            "is_digg": false,
            "is_follow": false,
            "is_collect": false
        }
    }, {
        "topic_id": "6824710202734936077",
        "topic": {
            "topic_id": "6824710202734936077",
            "title": "你怎么看？",
            "description": "如何看待如何看待…，对此，你怎么看？来这里分享下你想和掘金小伙伴讨论的问题吧~",
            "icon": "https://user-gold-cdn.xitu.io/2018/7/12/1648defb2fa34ce1?w=550\u0026h=542\u0026f=png\u0026s=97689",
            "msg_count": 1396,
            "follower_count": 2692,
            "attender_count": 5341
        },
        "user_interact": {
            "id": 6824710202734936077,
            "omitempty": 11,
            "user_id": 2990261628835821,
            "is_digg": false,
            "is_follow": false,
            "is_collect": false
        }
    }, {
        "topic_id": "6824710202936262663",
        "topic": {
            "topic_id": "6824710202936262663",
            "title": "代码秀",
            "description": "不论语言，不计行数，show show 你的代码片段。建议用在线代码图片 Carbon 生成图片，Carbon 链接：https://carbon.now.sh/。",
            "icon": "https://user-gold-cdn.xitu.io/2018/9/13/165d267a0720a057?w=800\u0026h=600\u0026f=png\u0026s=14724",
            "msg_count": 236,
            "follower_count": 3193,
            "attender_count": 1093
        },
        "user_interact": {
            "id": 6824710202936262663,
            "omitempty": 11,
            "user_id": 2990261628835821,
            "is_digg": false,
            "is_follow": false,
            "is_collect": false
        }
    }, {
        "topic_id": "6824710202873348104",
        "topic": {
            "topic_id": "6824710202873348104",
            "title": "人在职场",
            "description": "人在职场哪能时时顺风顺水，来聊聊工作中开心与不开心的事",
            "icon": "https://user-gold-cdn.xitu.io/2018/8/11/16528816b4d285cf?w=800\u0026h=600\u0026f=jpeg\u0026s=526634",
            "msg_count": 844,
            "follower_count": 2444,
            "attender_count": 3915
        },
        "user_interact": {
            "id": 6824710202873348104,
            "omitempty": 11,
            "user_id": 2990261628835821,
            "is_digg": false,
            "is_follow": false,
            "is_collect": false
        }
    }, {
        "topic_id": "6824710203221475336",
        "topic": {
            "topic_id": "6824710203221475336",
            "title": "划个知识点",
            "description": "分享下你刚学到的知识点，不仅限于代码笔记",
            "icon": "https://user-gold-cdn.xitu.io/2018/12/10/1679781887d8aa3b?w=800\u0026h=600\u0026f=png\u0026s=61909",
            "msg_count": 1185,
            "follower_count": 2182,
            "attender_count": 2224
        },
        "user_interact": {
            "id": 6824710203221475336,
            "omitempty": 11,
            "user_id": 2990261628835821,
            "is_digg": false,
            "is_follow": false,
            "is_collect": false
        }
    }, {
        "topic_id": "6824710202692993037",
        "topic": {
            "topic_id": "6824710202692993037",
            "title": "反馈 \u0026 建议",
            "description": "大家可以在这里给掘金提需求、反馈 bug，每一条内容我们都会看，掘金的产品、设计、开发也会经常和大家互动。\n发布格式：\n- Bug类：【Bug】+ 场景（Web/iOS/Android/H5）+ 设备（系统+掘金版本）+ 问题描述（请详细描述bug路径）+ 截图\n- 优化类：【优化】+ 优化点描述\n涉及到敏感信息的反馈，例如账号和小册购买充值问题，请发送邮件至 feedback@xitu.io\n官方运营联系微信：\n优弧：chnyifan 或者 zwcatfly\n小蝴蝶：rythmchen",
            "icon": "https://user-gold-cdn.xitu.io/2019/2/18/168fe22f90f63c06?w=225\u0026h=225\u0026f=jpeg\u0026s=15199",
            "msg_count": 1801,
            "follower_count": 1596,
            "attender_count": 583
        },
        "user_interact": {
            "id": 6824710202692993037,
            "omitempty": 11,
            "user_id": 2990261628835821,
            "is_digg": false,
            "is_follow": false,
            "is_collect": false
        }
    }],
    "cursor": "21",
    "count": 45,
    "has_more": true
}